…
    ## See spec(...) for full column specifications.

``` r
dim(potti_tibble)
```

    ## [1] 12558   135

``` r
print(potti_tibble, n_extra = 20)
```

    ## # A tibble: 12,558 x 135
    ##    probe_set Adria0   `0`  `0_1`  `0_2`  `0_3` `0_4`  `0_5` `0_6` `0_7`
    ##    <chr>      <dbl> <dbl>  <dbl>  <dbl>  <dbl> <dbl>  <dbl> <dbl> <dbl>
    ##  1 36460_at   41.7   21.8 126.    93.5   79.1   97.7 119.    66.4  88.2
    ##  2 36461_at  171.   122.  218.   179.    77.5   62.9 127.   108.  101. 
    ##  3 36462_at  147.   204.  211.   209.   217.   262.  204.   232.  334. 
    ##  4 36463_at  152.   122.  128.   186.   112.   154.  232.   165.   92.4
    ##  5 36464_at   21.0   35.4  12.2   19.5    8.65  23.5   5.47  30.4  41.9
    ##  6 36465_at  144.    95.2  12.8   83.6   30.1  246.   67.5   91.4 151. 
    ##  7 36466_at   21.8   26.4  29.4    5.86  18.5   28.6  34.3   12.7  34.2
    ##  8 36467_g_…   4.94  10.0   7.36   2.62   7.87  14.2   4.42  13.0  15.0
    ##  9 36468_at   59.6   51.7  29.8   26.1   10.9   43.9  14.3   56.5  16.0
    ## 10 36469_at   51.6   80.4  19.6   41.1   41.6   73.2  96.3   94.7  86.8
    ## # ... with 12,548 more rows, and 125 more variables: `0_8` <dbl>,
    ## #   `1` <dbl>, `1_1` <dbl>, `1_2` <dbl>, `1_3` <dbl>, `1_4` <dbl>,
    ## #   `1_5` <dbl>, `1_6` <dbl>, `1_7` <dbl>, `1_8` <dbl>, `1_9` <dbl>,
    ## #   `1_10` <dbl>, Adria1 <dbl>, Doce0 <dbl>, `0_9` <dbl>, `0_10` <dbl>,
    ## #   `0_11` <dbl>, `0_12` <dbl>, `0_13` <dbl>, `0_14` <dbl>, …
…
potti_sample_info <-
  potti_sample_info %>% 
  mutate(sample_id = 
           paste(drug_name, contrast_group, 
                 column_index, sep = "_")) %>% 
  select(sample_id, drug_name, contrast_group, column_index)

potti_sample_info
```

    ## # A tibble: 134 x 4
    ##    sample_id   drug_name contrast_group column_index
    ##    <chr>       <chr>     <chr>          <chr>       
    ##  1 Adria_0_001 Adria     0              001         
    ##  2 Adria_0_002 Adria     0              002         
    ##  3 Adria_0_003 Adria     0              003         
    ##  4 Adria_0_004 Adria     0              004         
    ##  5 Adria_0_005 Adria     0              005         
    ##  6 Adria_0_006 Adria     0              006         
    ##  7 Adria_0_007 Adria     0              007         
    ##  8 Adria_0_008 Adria     0              008         
    ##  9 Adria_0_009 Adria     0              009         
    ## 10 Adria_0_010 Adria     0              010         
    ## # ... with 124 more rows
…
potti_data_values <- 
  potti_tibble %>% 
  gather(-1, key = "sample_id", value = "value")
potti_data_values$row_index <- 
  rep(1:nrow(potti_tibble), n_samples)

potti_data_values <-
  potti_data_values %>% 
  rename(probeset_id = probe_set) %>% 
  select(sample_id, probeset_id, value, row_index)

potti_data_values
```

    ## # A tibble: 1,682,772 x 4
    ##    sample_id   probeset_id  value row_index
    ##    <chr>       <chr>        <dbl>     <int>
    ##  1 Adria_0_001 36460_at     41.7          1
    ##  2 Adria_0_001 36461_at    171.           2
    ##  3 Adria_0_001 36462_at    147.           3
    ##  4 Adria_0_001 36463_at    152.           4
    ##  5 Adria_0_001 36464_at     21.0          5
    ##  6 Adria_0_001 36465_at    144.           6
    ##  7 Adria_0_001 36466_at     21.8          7
    ##  8 Adria_0_001 36467_g_at    4.94         8
    ##  9 Adria_0_001 36468_at     59.6          9
    ## 10 Adria_0_001 36469_at     51.6         10
    ## # ... with 1,682,762 more rows
…
``` r
potti_sample_ranges <- 
  potti_data_values %>% 
  group_by(sample_id) %>% 
  summarise(q000_min = min(value),
            q050_med = median(value),
            q100_max = max(value))
potti_sample_ranges$sample_index <- c(1:n_samples)

potti_sample_ranges
```

    ## # A tibble: 134 x 5
    ##    sample_id  q000_min q050_med q100_max sample_index
    ##    <chr>         <dbl>    <dbl>    <dbl>        <int>
    ##  1 5-FU_0_060   0.409      53.0   24989             1
    ##  2 5-FU_0_061   0.211      45.8   19971.            2
    ##  3 5-FU_0_062   0.178      41.3   15964.            3
    ##  4 5-FU_0_063   0.125      48.4   16478.            4
    ##  5 5-FU_0_064   0.0677     49.5   18064.            5
    ##  6 5-FU_0_065   0.306      51.6   24571.            6
    ##  7 5-FU_0_066   0.327      45.0   20920.            7
    ##  8 5-FU_0_067   0.406      54.7   19732.            8
    ##  9 5-FU_1_068   0.330      47.7   20549.            9
    ## 10 5-FU_1_069   0.252      47.9   21087.           10
    ## # ... with 124 more rows
…
