…
``` r
nci60_tibble
```

    ## # A tibble: 2,272,680 x 10
    ##    `Probe Set Name` ID    GENE  panelnbr cellnbr pname cellname Signal
    ##    <chr>            <chr> <chr>    <int>   <int> <chr> <chr>     <dbl>
    ##  1 36460_at         GC26… POLR…        7       5 Leuk… K-562     120. 
    ##  2 36460_at         GC26… POLR…        7       6 Leuk… MOLT-4    114. 
    ##  3 36460_at         GC26… POLR…        7       3 Leuk… CCRF-CEM   67.4
    ##  4 36460_at         GC26… POLR…        7      10 Leuk… RPMI-82…  148. 
    ##  5 36460_at         GC26… POLR…        7       8 Leuk… HL-60(T…  105. 
    ##  6 36460_at         GC26… POLR…        7      19 Leuk… SR         41.8
    ##  7 36460_at         GC26… POLR…       12      14 CNS   SF-268     67.6
    ##  8 36460_at         GC26… POLR…       12      15 CNS   SF-295     70.8
    ##  9 36460_at         GC26… POLR…       12      16 CNS   SF-539     59.9
    ## 10 36460_at         GC26… POLR…       12       2 CNS   SNB-19     62.4
    ## # ... with 2,272,670 more rows, and 2 more variables: Detection <chr>, `P
    ## #   Value` <dbl>
…
``` r
small_table <-
  nci60_tibble %>% 
  filter(`Probe Set Name` == "100_g_at") %>% 
  select(Signal, gc_id, sample_id) %>% 
  spread(key = gc_id, value = Signal)

small_table
```

    ## # A tibble: 180 x 3
    ##    sample_id   GC32976 GC32977
    ##    <chr>         <dbl>   <dbl>
    ##  1 786-0_A        216.    216.
    ##  2 786-0_B        215.    215.
    ##  3 A498_A         214.    214.
    ##  4 A498_B         198.    198.
    ##  5 A498_C         170.    170.
    ##  6 A549/ATCC_A    157.    157.
    ##  7 A549/ATCC_B    171.    171.
    ##  8 A549/ATCC_C    255.    255.
    ##  9 ACHN_A         216.    216.
    ## 10 ACHN_B         146.    146.
    ## # ... with 170 more rows
…
We also check some standard summary values (min, med, max) in case
something odd shows up.

``` r
nci60_sample_ranges <- 
  nci60_data_values %>% 
  group_by(sample_id) %>% 
  summarise(q000_min = min(value),
            q050_med = median(value),
            q100_max = max(value))

nci60_sample_ranges
```

    ## # A tibble: 180 x 4
    ##    sample_id   q000_min q050_med q100_max
    ##    <chr>          <dbl>    <dbl>    <dbl>
    ##  1 786-0_A        0.452     51.2   31223.
    ##  2 786-0_B        0.378     49.4   35827.
    ##  3 A498_A         0.327     45.0   20920.
    ##  4 A498_B         0.180     53.5   13539.
    ##  5 A498_C         0.318     43.5   19297.
    ##  6 A549/ATCC_A    0.170     55.9   14501.
    ##  7 A549/ATCC_B    0.239     46.8   18981.
    ##  8 A549/ATCC_C    0.460     47.6   31499.
    ##  9 ACHN_A         0.343     45.8   21198.
    ## 10 ACHN_B         0.202     46.3   24150.
    ## # ... with 170 more rows
…
