…
``` r
gse349$data_values
```

    ## # A tibble: 176,750 x 4
    ##    sample_id probeset_id       value row_index
    ##    <chr>     <chr>             <dbl>     <int>
    ##  1 GSM4901   AFFX-MurIL2_at    54.1          1
    ##  2 GSM4901   AFFX-MurIL10_at   81.4          2
    ##  3 GSM4901   AFFX-MurIL4_at     5.90         3
    ##  4 GSM4901   AFFX-MurFAS_at    68.9          4
    ##  5 GSM4901   AFFX-BioB-5_at  1386.           5
    ##  6 GSM4901   AFFX-BioB-M_at  1595.           6
    ##  7 GSM4901   AFFX-BioB-3_at  1474.           7
    ##  8 GSM4901   AFFX-BioC-5_at  1236.           8
    ##  9 GSM4901   AFFX-BioC-3_at   920.           9
    ## 10 GSM4901   AFFX-BioDn-5_at 1610.          10
    ## # ... with 176,740 more rows

``` r
gse350$data_values
```

    ## # A tibble: 126,250 x 4
    ##    sample_id probeset_id     value row_index
    ##    <chr>     <chr>           <dbl>     <int>
    ##  1 GSM4903   AFFX-MurIL2_at   38.1         1
    ##  2 GSM4903   AFFX-MurIL10_at  59.6         2
    ##  3 GSM4903   AFFX-MurIL4_at   10.4         3
    ##  4 GSM4903   AFFX-MurFAS_at   42.2         4
    ##  5 GSM4903   AFFX-BioB-5_at  460.          5
    ##  6 GSM4903   AFFX-BioB-M_at  488.          6
    ##  7 GSM4903   AFFX-BioB-3_at  569.          7
    ##  8 GSM4903   AFFX-BioC-5_at  370.          8
    ##  9 GSM4903   AFFX-BioC-3_at  289.          9
    ## 10 GSM4903   AFFX-BioDn-5_at 502.         10
    ## # ... with 126,240 more rows
…
We also check some standard summary values (min, med, max) in case
something odd shows up.

``` r
geo_sample_ranges <- 
  geo_data_values %>% 
  group_by(sample_id) %>% 
  summarise(q000_min = min(value),
            q050_med = median(value),
            q100_max = max(value))

geo_sample_ranges
```

    ## # A tibble: 24 x 4
    ##    sample_id q000_min q050_med q100_max
    ##    <chr>        <dbl>    <dbl>    <dbl>
    ##  1 GSM4901       5.90     71.8    5710.
    ##  2 GSM4902       5.90     87.6    6450.
    ##  3 GSM4903       5.90     99.6    7142.
    ##  4 GSM4904       5.90     82.0    6075.
    ##  5 GSM4905       5.90     66.0    3536.
    ##  6 GSM4906       5.90     87.1    6859.
    ##  7 GSM4907       5.90     89.0    6364.
    ##  8 GSM4908       5.90    102.     9432.
    ##  9 GSM4909       5.90     62.7    7812.
    ## 10 GSM4910       5.90     76.2    8019.
    ## # ... with 14 more rows
…
