…
potti_geo_tibble <- 
  tibble(potti_sample = 
           names(potti_data_matrix)[c(1:n_potti_unmatched) +
                                      cytox_sample_offset],
         geo_sample = perfect_match_geo)

potti_geo_tibble
```

    ## # A tibble: 40 x 2
    ##    potti_sample geo_sample
    ##    <chr>        <chr>     
    ##  1 Cytox_0_075  GSM4901   
    ##  2 Cytox_0_076  GSM4902   
    ##  3 Cytox_0_077  GSM4904   
    ##  4 Cytox_0_078  GSM4905   
    ##  5 Cytox_0_079  GSM4906   
    ##  6 Cytox_0_080  GSM4909   
    ##  7 Cytox_0_081  GSM4910   
    ##  8 Cytox_0_082  GSM4911   
    ##  9 Cytox_0_083  GSM4912   
    ## 10 Cytox_0_084  GSM4914   
    ## # ... with 30 more rows
…
